{
    "resultView": {
        "disclaimer": {
            "en": "This is a sample Disclaimer",
            "de": "Dies ist ein Beispiel-Disclaimer"
        },
        "count": {
            "en": " Votes",
            "de": " Stimmen",
            "fr": " Voix",
            "es": " Votos",
            "it": " Voti"
        }
    }
}